^C:\USERS\OLEG\SOURCE\REPOS\CLASSES\CLASSES\CLASSES.CPP
C:\USERS\OLEG\SOURCE\REPOS\CLASSES\CLASSES\DEBUG\VC142.PDB
C:\USERS\OLEG\SOURCE\REPOS\CLASSES\CLASSES\DEBUG\VC142.IDB
C:\USERS\OLEG\SOURCE\REPOS\CLASSES\CLASSES\DEBUG\CLASSES.OBJ
